{
  "说明": {
    "简介": [
      "在模型三(2)的基础上增加卖出策略",
      "疑问: 中枢市净率有没有向上取整?",
      "小散逆袭：手把手教你做量化-模型四"
    ],
    "卖出很重要": [
      "在股票市场上说白了赚取的是股票一买一卖之间的差价，没有卖出操作的话，那么账户里的资金即便盈利再多也是白搭，专业名称叫“浮盈”",
      "定投是一个长期的投资计划，利润的产生都依赖牛市，熊市积攒股本，牛市兑现利润",
      "股市中并不存在一个确定的方法能在短周期内一直实现高抛低吸"
    ],
    "买卖一致性原则": [
      "通俗点儿说就是：怎么买的就怎么卖",
      [
        "本书前面章节用市净率来作为衡量市场高低的尺子",
        "并用市净率的高低来指导买入",
        "那么当然还要用市净率来指导卖出操作",
        "这就是买卖一致性原则"
      ],
      [
        "这个原则是股市操作的一个基本原则",
        "不但能指导定投,就是大家以后做其他类型的长短线操作也是必须要清楚和明白的一个原则",
        "散户在市场中经常犯的一个错误就是,**买的时候看基本面,卖的时候看技术面**"
      ]
    ]
  },
  "怎么买": {
    "定投日": "每月最后一个交易日",
    "买入价格": "收盘价买入",
    "条件": [
      "@PB等权小于4"
    ]
  },
  "买多少": {
    "函数计算": {
      "公式": "买入金额 = 金额增加步长 * ((中枢市净率 - 当前市净率.向下取整)**2)",
      "变量": {
        "金额增加步长": 575,
        "中枢市净率": 4,
        "当前市净率": "@PB等权"
      }
    }
  },
  "怎么卖": {
    "定投日": "每月最后一个交易日",
    "卖出价格": "收盘价卖出",
    "条件": [
      "@PB等权大于4"
    ]
  },
  "卖多少": {
    "函数计算": {
      "公式": "卖出金额 = 金额增加步长 * ((当前市净率.向下取整 - 中枢市净率)**2)",
      "变量": {
        "金额增加步长": -600,
        "中枢市净率": 4,
        "当前市净率": "@PB等权"
      }
    }
  }
}