{
  "说明": {
    "简介": [
      "基于模型四(2)的改造",
      "小散逆袭：手把手教你做量化-模型五"
    ],
    "历史总会以相似的情况重演": [
      [
        "模型五中一个最关键的改动就是对回收资金的再利用",
        "这个利用的关键是模型要先经历一次完整的牛熊周期",
        "在2002-2006年这轮熊市中,投入按照模型投入了多少本金,",
        "那么下次熊市来临,也假设大致需要投入这么多的资金"
      ],
      [
        "这里隐含了一个前提,就是“历史总会以相似的情况重演”",
        "其实坦白地说,这句话也是我们整个量化定投模型的前提,甚至可以说是所有股票技术分析理论的前提"
      ],
      "我们不求每次的牛熊轮替都是复制以前,当然也不可能。但是,大致都在遵循着同样的运行规律"
    ],
    "关于模型四(2)": [
      [
        "从2002年1月开始,采用了模型四(2)这种定投方法",
        "时间在不断地流逝,指数在不断地创造新低,",
        "到了2006年11月,模型终于开始提示要卖出了,指数也从最低的998点涨到了2000点",
        "在这个月,过去一共投入58个月,已经累计投入了19.1万元的本金"
      ],
      [
        "接下来,股市一路走牛,而我们依然老老实实地按照模型默默地在卖出手中的筹码",
        "卖出的操作一直持续到2008年7月,账户中还有22.19万元市值的筹码,账户中的可用资金为31.74万元,总资产是53.94万元"
      ],
      "其实这个时候,我们认为牛市结束了,要开始新一轮的熊市",
      [
        "在熊市的4年多时间里,投入了19.1万元的本金",
        "那么可以根据这个“经验”,假设未来的熊市走势大抵如此,那么31.74万元可以按照这个速度均分到未来的定投买入中",
        "那么从2008年8月开始,我们的定投买入公式就要变为：本次定投金额=(回收资金/熊市投入本金+1)×定投步长×(近5年PB均值-当前PB)²",
        "本次定投金额=(31.74/19.1+1)x2600x(近5年PB均值-当前PB)²"
      ]
    ]
  },
  "怎么买": {
    "定投日": "每月最后一个交易日",
    "买入价格": "收盘价买入",
    "条件": [
      "@PB等权小于@PB等权-近五年均值"
    ]
  },
  "买多少": {
    "函数计算": {
      "公式": "买入金额 = (回收资金/熊市投入本金+1)*金额增加步长 * ((近五年市净率均值 - 当前市净率.向下取整)**2)",
      "变量": {
        "回收资金": 92317.3221,
        "熊市投入本金": 168189.8214,
        "金额增加步长": 1200,
        "近五年市净率均值": "@PB等权-近五年均值",
        "当前市净率": "@PB等权"
      }
    }
  },
  "怎么卖": {
    "定投日": "每月最后一个交易日",
    "卖出价格": "收盘价卖出",
    "条件": [
      "@PB等权大于@PB等权-近五年均值"
    ]
  },
  "卖多少": {
    "函数计算": {
      "公式": "卖出金额 = 金额增加步长 * ((当前市净率.向下取整 - 近五年市净率均值)**2)",
      "变量": {
        "金额增加步长": -1200,
        "近五年市净率均值": "@PB等权-近五年均值",
        "当前市净率": "@PB等权"
      }
    }
  }
}