[
  {
    "plat_id": "26289183",
    "name": "Hotel California (2013 Remaster)",
    "author": "Eagles",
    "poster_url": "http://p1.music.126.net/ESU2My24GG1JjuztMq-7Gw==/109951163940111977.jpg",
    "platform": "163"
  },
  {
    "plat_id": "63612",
    "name": "假行僧",
    "author": "崔健",
    "poster_url": "http://p2.music.126.net/tQgClDZoPP85veplat_idmY-cOg==/109951163067343573.jpg",
    "platform": "163"
  },
  {
    "plat_id": "18095057",
    "name": "Knockin' On Heaven's Door",
    "author": "Guns N' Roses",
    "poster_url": "http://p1.music.126.net/5nhikM-uQuOMvXiawnP8Jg==/109951163326693570.jpg",
    "platform": "163"
  },
  {
    "plat_id": "386844",
    "name": "杀死那个石家庄人",
    "author": "万能青年旅店",
    "poster_url": "http://p1.music.126.net/W1kczDCB4-r-uNAznD1ljg==/108851651165850.jpg",
    "platform": "163"
  },
  {
    "plat_id": "1142600",
    "name": "Have You Ever Seen the Rain?",
    "author": "Creedence Clearwater Revival",
    "poster_url": "http://p2.music.126.net/N_dKVs4hXXuH2it7QhjWbA==/818036651108594.jpg",
    "platform": "163"
  },
  {
    "plat_id": "63618",
    "name": "出走",
    "author": "崔健",
    "poster_url": "http://p1.music.126.net/tQgClDZoPP85veplat_idmY-cOg==/109951163067343573.jpg",
    "platform": "163"
  },
  {
    "plat_id": "25707139",
    "name": "一生所爱",
    "author": "卢冠廷/莫文蔚",
    "poster_url": "http://p1.music.126.net/ZwOyxtml-t4cra3hRy7CkQ==/6634453162971822.jpg",
    "platform": "163"
  },
  {
    "plat_id": "4153382",
    "name": "Simple Man",
    "author": "Lynyrd Skynyrd",
    "poster_url": "http://p1.music.126.net/g0HPZ2B_uEDfTH15xBE52A==/2528876744910161.jpg",
    "platform": "163"
  },
  {
    "plat_id": "19644630",
    "name": "Tears Of A Clown",
    "author": "U.D.O.",
    "poster_url": "http://p2.music.126.net/ZVvbChMsK6VJhPnQpG0IaQ==/109951165031387399.jpg",
    "platform": "163"
  },
  {
    "plat_id": "32701152",
    "name": "灰色轨迹",
    "author": "Beyond",
    "poster_url": "http://p1.music.126.net/K_p-jhEvCpP7I4Sqd_QfFw==/7954966627607511.jpg",
    "platform": "163"
  },
  {
    "plat_id": "234252",
    "name": "地尽头",
    "author": "关淑怡",
    "poster_url": "http://p1.music.126.net/HitOOKV3moYC_PO1pWARrQ==/109951164931743325.jpg",
    "platform": "163"
  },
  {
    "plat_id": "5264842",
    "name": "渡口",
    "author": "蔡琴",
    "poster_url": "http://p1.music.126.net/uAT4CcsZdcAYs-CS0hr-0w==/93458488378219.jpg",
    "platform": "163"
  },
  {
    "plat_id": "18212266",
    "name": "After the Gold Rush",
    "author": "Patti Smith",
    "poster_url": "http://p1.music.126.net/45f9H26pzAaBwljab3IjpQ==/18403625626198843.jpg",
    "platform": "163"
  },
  {
    "plat_id": "95410",
    "name": "新鸳鸯蝴蝶梦",
    "author": "黄安",
    "poster_url": "http://p1.music.126.net/bA0VutnGbJSfI5ZbiVMpcw==/38482906984192.jpg",
    "platform": "163"
  },
  {
    "plat_id": "21280021",
    "name": "Old Man",
    "author": "Neil Young",
    "poster_url": "http://p1.music.126.net/mcTT5od07WG5d6_alBOIGQ==/109951163572766057.jpg",
    "platform": "163"
  },
  {
    "plat_id": "194769",
    "name": "让一切随风",
    "author": "钟镇涛",
    "poster_url": "http://p1.music.126.net/jQtWf7uwMVVUGNnm8T2rjw==/109951163569817262.jpg",
    "platform": "163"
  },
  {
    "plat_id": "157092",
    "name": "白鸽",
    "author": "伍佰 \u0026 China Blue",
    "poster_url": "http://p1.music.126.net/VLFmbPWelG6HomcYYIT-Tg==/109951163346508216.jpg",
    "platform": "163"
  },
  {
    "plat_id": "109198",
    "name": "恋曲1990",
    "author": "罗大佑",
    "poster_url": "http://p1.music.126.net/HNHU4X2_wB41h5MvGn8ZXw==/109951163104937346.jpg",
    "platform": "163"
  },
  {
    "plat_id": "520012634",
    "name": "Always Somewhere",
    "author": "Scorpions",
    "poster_url": "http://p1.music.126.net/FHuHbHIPYX20pFeK8Z1-Bg==/18261788626295919.jpg",
    "platform": "163"
  },
  {
    "plat_id": "20544869",
    "name": "Long As I Can See The Light",
    "author": "Creedence Clearwater Revival",
    "poster_url": "http://p2.music.126.net/KeDFy-aJAOWwu9OsTR1XFQ==/2538772349201261.jpg",
    "platform": "163"
  },
  {
    "plat_id": "477839558",
    "name": "O Children",
    "author": "Nick Cave \u0026 the Bad Seeds",
    "poster_url": "http://p1.music.126.net/Im_1sLF2EcgejJpWHaoNgw==/18729081069445594.jpg",
    "platform": "163"
  },
  {
    "plat_id": "19553535",
    "name": "Every Breath You Take",
    "author": "The Police",
    "poster_url": "http://p1.music.126.net/DczC2ovmPf6fzjwEmGSwHw==/790548860381288.jpg",
    "platform": "163"
  },
  {
    "plat_id": "5058719",
    "name": "Stand By Me",
    "author": "Ben E. King",
    "poster_url": "http://p1.music.126.net/CFo7nv9jmAUCd63965oHEA==/2537672837877396.jpg",
    "platform": "163"
  },
  {
    "plat_id": "2002761",
    "name": "Ol' '55",
    "author": "Tom Waits",
    "poster_url": "http://p2.music.126.net/oYSN7b-K3hM1L-BazQG99w==/860917604602747.jpg",
    "platform": "163"
  },
  {
    "plat_id": "405612712",
    "name": "僕が死のうと思ったのは",
    "author": "amazarashi",
    "poster_url": "http://p1.music.126.net/TtlW6TMfxTs63yqjehIGpw==/1375489048830527.jpg",
    "platform": "163"
  },
  {
    "plat_id": "1412597751",
    "name": "玉珍",
    "author": "福禄寿FloruitShow",
    "poster_url": "http://p1.music.126.net/DfcuSCXcSoaeydOrfyNS1A==/109951164584074717.jpg",
    "platform": "163"
  },
  {
    "plat_id": "28143753",
    "name": "Stay Alive",
    "author": "José González",
    "poster_url": "http://p1.music.126.net/yU_pXqN1KAjjNdKa_fXveQ==/2534374302309080.jpg",
    "platform": "163"
  },
  {
    "plat_id": "347230",
    "name": "海阔天空",
    "author": "Beyond",
    "poster_url": "http://p2.music.126.net/QHw-RuMwfQkmgtiyRpGs0Q==/102254581395219.jpg",
    "platform": "163"
  },
  {
    "plat_id": "18127334",
    "name": "Wake Me up When September Ends",
    "author": "Green Day",
    "poster_url": "http://p2.music.126.net/KodgktdYFYMm325EAS2Jfg==/109951163834151238.jpg",
    "platform": "163"
  },
  {
    "plat_id": "4331142",
    "name": "Sam's Town (Acoustic) (Live From The Royal Albert Hall / 2009)",
    "author": "The Killers",
    "poster_url": "http://p1.music.126.net/9S_6ODWo3--gmsBxEMa3Vw==/109951163356920653.jpg",
    "platform": "163"
  },
  {
    "plat_id": "25730836",
    "name": "Indian Summer",
    "author": "Stereophonics",
    "poster_url": "http://p1.music.126.net/zANFY71OR7QLlpo8Wy1feQ==/2542070883422157.jpg",
    "platform": "163"
  },
  {
    "plat_id": "346085",
    "name": "谁伴我闯荡",
    "author": "Beyond",
    "poster_url": "http://p2.music.126.net/ghmbmEQS-IJfZPjdA3KGxg==/82463372084291.jpg",
    "platform": "163"
  },
  {
    "plat_id": "420125810",
    "name": "Here We Are ",
    "author": "华晨宇",
    "poster_url": "http://p2.music.126.net/h7DUXh8T6bNW021Y2vN9_g==/3426078245999917.jpg",
    "platform": "163"
  },
  {
    "plat_id": "167595",
    "name": "向阳花",
    "author": "谢天笑",
    "poster_url": "http://p1.music.126.net/3odWN-BLCUORf8NVFJt1pA==/72567767434027.jpg",
    "platform": "163"
  },
  {
    "plat_id": "454698657",
    "name": "迷途羔羊",
    "author": "张震岳",
    "poster_url": "http://p1.music.126.net/b1eSBbx2Yia0k89ocfOnjQ==/18677404023325159.jpg",
    "platform": "163"
  },
  {
    "plat_id": "27659881",
    "name": "Behind Blue Eyes",
    "author": "Who",
    "poster_url": "http://p1.music.126.net/WRw2a8_iuLC6Cnn2K427rQ==/3125911557847390.jpg",
    "platform": "163"
  },
  {
    "plat_id": "18827726",
    "name": "In My Life",
    "author": "Johnny Cash",
    "poster_url": "http://p1.music.126.net/7t4nwZ3rk2YEZwuDOe0_IA==/6623458046649973.jpg",
    "platform": "163"
  },
  {
    "plat_id": "383030",
    "name": "回家的路",
    "author": "铁玉兰",
    "poster_url": "http://p1.music.126.net/FYGgjiRfb-sJG1HaOzJcFQ==/109951164475806823.jpg",
    "platform": "163"
  },
  {
    "plat_id": "22088505",
    "name": "Blowin' In the Wind",
    "author": "Bob Dylan",
    "poster_url": "http://p2.music.126.net/EntkUTdkGsbFg_1J0Qz-eA==/6625657069530090.jpg",
    "platform": "163"
  },
  {
    "plat_id": "4092699",
    "name": "My Apologies",
    "author": "Isbells",
    "poster_url": "http://p1.music.126.net/UeyE5Tz3nDwlnp_BV0lQJg==/1781208837007005.jpg",
    "platform": "163"
  },
  {
    "plat_id": "4875911",
    "name": "California Dreaming",
    "author": "The Mamas \u0026 the Papas",
    "poster_url": "http://p1.music.126.net/sJi6XI_-9g_EfYLRQgLO2g==/102254581399131.jpg",
    "platform": "163"
  },
  {
    "plat_id": "1934649",
    "name": "Shape Of My Heart",
    "author": "Sting",
    "poster_url": "http://p1.music.126.net/2XzaHeETVeYYaGEIxSq6lQ==/803742999956794.jpg",
    "platform": "163"
  },
  {
    "plat_id": "18824422",
    "name": "Father And Son",
    "author": "Johnny Cash/Fiona Apple",
    "poster_url": "http://p2.music.126.net/4gCivCpAPsZG7WqLj3rF1A==/2540971372869697.jpg",
    "platform": "163"
  },
  {
    "plat_id": "2795762",
    "name": "Time in a Bottle",
    "author": "Jim Croce",
    "poster_url": "http://p2.music.126.net/7AXFdvouADhOyK8A3wPYag==/941181953423956.jpg",
    "platform": "163"
  },
  {
    "plat_id": "1821488",
    "name": "Sound of Silence",
    "author": "Paul Simon",
    "poster_url": "http://p1.music.126.net/N8Ii4g5Fy_cTFUKcz3YQMA==/18358545649758262.jpg",
    "platform": "163"
  },
  {
    "plat_id": "21723646",
    "name": "I Stopped To Fill My Car Up",
    "author": "Stereophonics",
    "poster_url": "http://p1.music.126.net/pJcdOhmfTmUmbrZUgT9syQ==/6655343883863322.jpg",
    "platform": "163"
  },
  {
    "plat_id": "27646205",
    "name": "安和桥",
    "author": "宋冬野",
    "poster_url": "http://p2.music.126.net/GcRunGm02vZBicYmIN6GXw==/109951163200249252.jpg",
    "platform": "163"
  },
  {
    "plat_id": "26584442",
    "name": "风的季节",
    "author": "Soler",
    "poster_url": "http://p2.music.126.net/KWonqfsj39pd5_Yyf2bE6g==/109951163856433553.jpg",
    "platform": "163"
  },
  {
    "plat_id": "461525011",
    "name": "起风了（Cover 高橋優）",
    "author": "买辣椒也用券",
    "poster_url": "http://p1.music.126.net/c0nzSObvxF_DftayAJjXsw==/109951162864860506.jpg",
    "platform": "163"
  },
  {
    "plat_id": "17572558",
    "name": "Mockingbird",
    "author": "Eminem",
    "poster_url": "http://p1.music.126.net/-YcvCrLTWhUqlTOeCxGLoQ==/109951163925087989.jpg",
    "platform": "163"
  },
  {
    "plat_id": "550192888",
    "name": "生长 Leave the soil",
    "author": "一三",
    "poster_url": "http://p1.music.126.net/eCrUAFfLmKrs6gwur_ufjA==/109951163338527460.jpg",
    "platform": "163"
  },
  {
    "plat_id": "28068737",
    "name": "걱정말아요 그대",
    "author": "野菊花",
    "poster_url": "http://p1.music.126.net/zPpMOPCZVuYDlLnD25o_UA==/109951163658947777.jpg",
    "platform": "163"
  },
  {
    "plat_id": "21356855",
    "name": "Feeling Good",
    "author": "Nina Simone",
    "poster_url": "http://p2.music.126.net/ZGMiYSt3rHqhA-Lj5BPUjg==/6657542906875835.jpg",
    "platform": "163"
  },
  {
    "plat_id": "1078463",
    "name": "Love Is Dead",
    "author": "Brett Anderson",
    "poster_url": "http://p1.music.126.net/DcvXh_S0iK-Js7xC4vk0ew==/109951163302703629.jpg",
    "platform": "163"
  },
  {
    "plat_id": "1787661",
    "name": "Helpless",
    "author": "Neil Young",
    "poster_url": "http://p1.music.126.net/x_IhHEWBnOu5YQQHB2AvIA==/835628837161659.jpg",
    "platform": "163"
  },
  {
    "plat_id": "108697",
    "name": "凡人歌",
    "author": "李宗盛",
    "poster_url": "http://p1.music.126.net/XXlcoIURJoLp3D5YcX1V9g==/109951163071279000.jpg",
    "platform": "163"
  },
  {
    "plat_id": "1298486",
    "name": "I Need Some Sleep",
    "author": "Eels",
    "poster_url": "http://p1.music.126.net/3y0hZG12i_x4IFXG3vLbnQ==/813638604604870.jpg",
    "platform": "163"
  },
  {
    "plat_id": "18828737",
    "name": "Hurt",
    "author": "Johnny Cash",
    "poster_url": "http://p2.music.126.net/mFlhDN53-LwFDj6jnyFjog==/655308930164295.jpg",
    "platform": "163"
  },
  {
    "plat_id": "347255",
    "name": "无语问苍天",
    "author": "Beyond",
    "poster_url": "http://p2.music.126.net/DE9N_KPOJQ6W740kqSuWMQ==/119846767440732.jpg",
    "platform": "163"
  },
  {
    "plat_id": "21429888",
    "name": "Please Don't Leave Me",
    "author": "Pretty Maplat_ids",
    "poster_url": "http://p1.music.126.net/Eptg12ykKnJc_rRXk16LCg==/2542070884388552.jpg",
    "platform": "163"
  },
  {
    "plat_id": "20506035",
    "name": "Dream On",
    "author": "Aerosmith",
    "poster_url": "http://p1.music.126.net/b01H_zfAYFnWEj434dgDzw==/109951164948859710.jpg",
    "platform": "163"
  },
  {
    "plat_id": "30621338",
    "name": "Dream",
    "author": "Imagine Dragons",
    "poster_url": "http://p1.music.126.net/7n0WARV0Ra29fXOdFCHgFA==/18494885090944649.jpg",
    "platform": "163"
  },
  {
    "plat_id": "17571164",
    "name": "Ordinary Man",
    "author": "Eels",
    "poster_url": "http://p1.music.126.net/cp1vtznljMP5h5-hDFoJaw==/109951163409469109.jpg",
    "platform": "163"
  },
  {
    "plat_id": "29004400",
    "name": "烟火里的尘埃",
    "author": "华晨宇",
    "poster_url": "http://p1.music.126.net/_49Xz_x9kTTdEgmYYk6w2w==/6672936069046297.jpg",
    "platform": "163"
  },
  {
    "plat_id": "346576",
    "name": "光辉岁月",
    "author": "Beyond",
    "poster_url": "http://p1.music.126.net/JOJvZc_7SqQjKf8TktQ_bw==/29686813951246.jpg",
    "platform": "163"
  },
  {
    "plat_id": "16649888",
    "name": "Skinny Love",
    "author": "Bon Iver",
    "poster_url": "http://p2.music.126.net/61QBBl9or8Mzd9IjT7hlPQ==/109951163471279835.jpg",
    "platform": "163"
  },
  {
    "plat_id": "1342511971",
    "name": "那些失眠的夜与难以忘怀的事",
    "author": "老王乐队",
    "poster_url": "http://p2.music.126.net/Ds5cadSofYKP6enuIC1_xA==/109951164432181024.jpg",
    "platform": "163"
  },
  {
    "plat_id": "381825",
    "name": "公路之歌",
    "author": "痛仰乐队",
    "poster_url": "http://p1.music.126.net/1f7NwezJUZ_Ewpd070oYaQ==/30786325592070.jpg",
    "platform": "163"
  },
  {
    "plat_id": "18824409",
    "name": "Heart Of Gold",
    "author": "Johnny Cash",
    "poster_url": "http://p1.music.126.net/4gCivCpAPsZG7WqLj3rF1A==/2540971372869697.jpg",
    "platform": "163"
  },
  {
    "plat_id": "552032085",
    "name": "躲不过时间 And you forever",
    "author": "一三",
    "poster_url": "http://p1.music.126.net/eCrUAFfLmKrs6gwur_ufjA==/109951163338527460.jpg",
    "platform": "163"
  },
  {
    "plat_id": "5218306",
    "name": "Don't Stop Believin'",
    "author": "Journey",
    "poster_url": "http://p1.music.126.net/sBL916uUyzcEX1I48FC-Gg==/1730631302134364.jpg",
    "platform": "163"
  },
  {
    "plat_id": "5271858",
    "name": "难念的经",
    "author": "周华健",
    "poster_url": "http://p2.music.126.net/n_7R-J0uWaBPBkm7aVsA_Q==/122045790701114.jpg",
    "platform": "163"
  },
  {
    "plat_id": "66282",
    "name": "浮夸",
    "author": "陈奕迅",
    "poster_url": "http://p2.music.126.net/Bl1hEdJbMSj5YJsTqUjr-w==/109951163520311175.jpg",
    "platform": "163"
  },
  {
    "plat_id": "2309623",
    "name": "Joey",
    "author": "Concrete Blonde",
    "poster_url": "http://p1.music.126.net/z19gg6gxcD5qieeIoJbcLA==/801543976702546.jpg",
    "platform": "163"
  },
  {
    "plat_id": "520449054",
    "name": "当局者迷",
    "author": "Mr.邓宇/司徒骏文",
    "poster_url": "http://p1.music.126.net/QQ2AfTl-r-eGiMiPYqRonw==/109951163068709072.jpg",
    "platform": "163"
  },
  {
    "plat_id": "22430279",
    "name": "Tomorrow, Wendy (2010 Digital Remaster)",
    "author": "Concrete Blonde",
    "poster_url": "http://p1.music.126.net/rpf0e0iuQjx5nIq8wLUvKw==/833429813876935.jpg",
    "platform": "163"
  },
  {
    "plat_id": "26534131",
    "name": "Last Soul on Earth",
    "author": "Miriam Bryant",
    "poster_url": "http://p2.music.126.net/XVyr-tbzf0ugP5EU8PwFCA==/4431031859949976.jpg",
    "platform": "163"
  },
  {
    "plat_id": "453459809",
    "name": "小峰饭店",
    "author": "一三",
    "poster_url": "http://p2.music.126.net/4Wgh-K6z-WCrBwf2ziGbCA==/109951162813920851.jpg",
    "platform": "163"
  },
  {
    "plat_id": "1039333",
    "name": "Quiet Insplat_ide",
    "author": "Andy Tubman",
    "poster_url": "http://p2.music.126.net/ry1a2wYFdsu6l1S0FHJ3Ig==/821335185991869.jpg",
    "platform": "163"
  },
  {
    "plat_id": "1306923998",
    "name": "我用什么把你留住",
    "author": "福禄寿FloruitShow",
    "poster_url": "http://p1.music.126.net/-pS9QZROJ4UTSI1Tg2VSyg==/109951163529550258.jpg",
    "platform": "163"
  },
  {
    "plat_id": "1309394162",
    "name": "再见青春",
    "author": "任素汐",
    "poster_url": "http://p2.music.126.net/VfL1yDDtIL-GCH_Zt4a9NQ==/109951163547493452.jpg",
    "platform": "163"
  },
  {
    "plat_id": "3413782",
    "name": "The End of the World",
    "author": "Skeeter Davis",
    "poster_url": "http://p1.music.126.net/VYAnSSZbtM2ePAJwRdbrAw==/109951163642060408.jpg",
    "platform": "163"
  },
  {
    "plat_id": "27937429",
    "name": "盛夏的果实",
    "author": "莫文蔚",
    "poster_url": "http://p1.music.126.net/iNcrt344tK6tME6tCbcbTw==/5818615534203000.jpg",
    "platform": "163"
  },
  {
    "plat_id": "192243",
    "name": "梦想成家",
    "author": "赵牧阳",
    "poster_url": "http://p2.music.126.net/2cM77HJ2VEn-L5FvXOc_hw==/37383395361216.jpg",
    "platform": "163"
  },
  {
    "plat_id": "35090543",
    "name": "Sunset Jesus",
    "author": "Avicii/Sandro Cavazza",
    "poster_url": "http://p2.music.126.net/43_0vYK1frgpE9xIaX_9RQ==/3340316325648166.jpg",
    "platform": "163"
  }
]